{
  "products": [
    {
     "title": "Playera Joran Basquetbol Jupmpman Flight",
     "sku": "4000788733",
     "img_url": "/images/martigrid-1.jpg",
     "sizes": "CH",
     "color": "gris",
     "price": "499.00",
     "total": "499.00",
     "quantity": "1"
   },
   {
    "title": "Jersey Adidas NBA Chicago Bulls Retired Rodman",
    "sku": "4000800200",
    "img_url": "/images/martigrid-2.jpg",
    "sizes": "MD",
    "color": "blanco",
    "price": "1,099.00",
    "total": "499.00",
    "quantity": "1"
  }
  ]
}
